<?xml version="1.0" encoding="UTF-8" standalone="no"?>
<svg
   width="16"
   height="16"
   viewBox="0 0 16 16"
   fill="currentColor"
   version="1.1"
   id="svg1"
   xmlns="http://www.w3.org/2000/svg"
   xmlns:svg="http://www.w3.org/2000/svg"
   xmlns:rdf="http://www.w3.org/1999/02/22-rdf-syntax-ns#"
   xmlns:cc="http://creativecommons.org/ns#"
   xmlns:dc="http://purl.org/dc/elements/1.1/">
  <defs
     id="defs1" />
  <title
     id="title1">Boards</title>
  <path
     fill-rule="evenodd"
     clip-rule="evenodd"
     d="M 16,5.1428571 V 6.2857143 H 13.714286 V 9.714286 H 16 v 1.142857 h -2.285714 v 1.714286 c 0,0.631222 -0.511635,1.142857 -1.142857,1.142857 H 10.857143 V 16 H 9.714286 V 13.714286 H 6.2857143 V 16 H 5.1428571 V 13.714286 H 3.4285714 c -0.6311863,0 -1.1428571,-0.511635 -1.1428571,-1.142857 V 10.857143 H 0 V 9.714286 H 2.2857143 V 6.2857143 H 0 V 5.1428571 H 2.2857143 V 3.4285714 c 0,-0.6311863 0.5116708,-1.1428571 1.1428571,-1.1428571 H 5.1428571 V 0 H 6.2857143 V 2.2857143 H 9.714286 V 0 h 1.142857 v 2.2857143 h 1.714286 c 0.631222,0 1.142857,0.5116708 1.142857,1.1428571 V 5.1428571 Z M 3.4285714,12.571429 H 12.571429 V 3.4285714 H 3.4285714 Z M 5.1428571,5.1428571 V 10.857143 H 10.857143 V 5.1428571 Z M 6.2857143,9.714286 H 9.714286 V 6.2857143 H 6.2857143 Z"
     fill="#b6519d"
     id="path1"
     style="stroke-width:0.914286" />
  <metadata
     id="metadata1">
    <rdf:RDF>
      <cc:Work
         rdf:about="">
        <dc:title>Boards</dc:title>
      </cc:Work>
    </rdf:RDF>
  </metadata>
</svg>
