{
	"title": "8 Bit Graphics with MicroBlocks",
	"author": "Bernat Romagosa",
	"author-link": "https://microblocks.fun/about",
	"organization": "MicroBlocks",
	"organization-link": "https://microblocks.fun",
	"last-update": "2023-12-11"
}
